Boğaziçi University
…
5. Outliers of the Data

5.1. First Approach

# Calculate outliers using IQR for each company and month 
outliers_data <- filtered_data %>%
group_by(short_name, year_month) %>% mutate(Q1 = quantile(price, 0.25),
Q3 = quantile(price, 0.75),
IQR = Q3 - Q1,
lower_bound = Q1 - 1.5 * IQR, upper_bound = Q3 + 1.5 * IQR) %>%
filter(price < lower_bound | price > upper_bound) %>% ungroup()
print(outliers_data)

## # A tibble: 5,499 × 9
##    short_name timestamp           price year_month    Q1    Q3   IQR lower_bound
##    <chr>      <dttm>              <dbl> <chr>      <dbl> <dbl> <dbl>       <dbl>
##  1 AKBNK      2012-12-03 07:45:00  6.11 2012-12     6.31  6.42 0.116        6.13
##  2 AKBNK      2012-12-03 08:00:00  6.08 2012-12     6.31  6.42 0.116        6.13
##  3 AKBNK      2012-12-03 08:15:00  6.09 2012-12     6.31  6.42 0.116        6.13
##  4 AKBNK      2012-12-03 08:30:00  6.09 2012-12     6.31  6.42 0.116        6.13
##  5 AKBNK      2012-12-03 08:45:00  6.08 2012-12     6.31  6.42 0.116        6.13
##  6 AKBNK      2012-12-03 09:00:00  6.09 2012-12     6.31  6.42 0.116        6.13
##  7 AKBNK      2012-12-03 09:15:00  6.09 2012-12     6.31  6.42 0.116        6.13
##  8 AKBNK      2012-12-03 09:30:00  6.11 2012-12     6.31  6.42 0.116        6.13
##  9 AKBNK      2012-12-03 09:45:00  6.09 2012-12     6.31  6.42 0.116        6.13
## 10 AKBNK      2012-12-03 10:00:00  6.09 2012-12     6.31  6.42 0.116        6.13
## # ℹ 5,489 more rows
## # ℹ 1 more variable: upper_bound <dbl>
…
